Week 9: Intro to piping and tidyverse data wrangling
…
df.long2 <- 
  pivot_longer(
    df,
    cols = c("mpg", "wt", "hp"),
    names_to = "name",
    values_to = "val"
  )

df.long2

## # A tibble: 96 x 4
##     carb model          name     val
##    <dbl> <chr>          <chr>  <dbl>
##  1     4 Mazda RX4      mpg    21   
##  2     4 Mazda RX4      wt      2.62
##  3     4 Mazda RX4      hp    110   
##  4     4 Mazda RX4 Wag  mpg    21   
##  5     4 Mazda RX4 Wag  wt      2.88
##  6     4 Mazda RX4 Wag  hp    110   
##  7     1 Datsun 710     mpg    22.8 
##  8     1 Datsun 710     wt      2.32
##  9     1 Datsun 710     hp     93   
## 10     1 Hornet 4 Drive mpg    21.4 
## # … with 86 more rows
…
pivot_wider

  pivot_wider( 
    data frame name,
    names_from = what column has the column names
    values_from = what column has the values
  )

  pivot_wider( 
    df.long,
    names_from = "name", 
    values_from = "val"
  )

## # A tibble: 32 x 5
##    model              carb   mpg    wt    hp
##    <fct>             <dbl> <dbl> <dbl> <dbl>
##  1 Mazda RX4             4  21    2.62   110
##  2 Mazda RX4 Wag         4  21    2.88   110
##  3 Datsun 710            1  22.8  2.32    93
##  4 Hornet 4 Drive        1  21.4  3.22   110
##  5 Hornet Sportabout     2  18.7  3.44   175
##  6 Valiant               1  18.1  3.46   105
##  7 Duster 360            4  14.3  3.57   245
##  8 Merc 240D             2  24.4  3.19    62
##  9 Merc 230              2  22.8  3.15    95
## 10 Merc 280              4  19.2  3.44   123
## # … with 22 more rows
…
